^C:\USERS\PIERRE\DOCUMENTS\VISUAL STUDIO 2017\PROJECTS\MOTEUROPENGL\MOTEUROPENGL\ENGINE\CORE\APP.CPP
/c /I"..\LIBRARIES\GLEW-2.1.0\INCLUDE" /I..\LIBRARIES\GLM /I"..\LIBRARIES\GLFW-3.2.1.BIN.WIN64\INCLUDE" /I"..\GLFW-3.2.1.BIN.WIN64\INCLUDE" /ZI /nologo /W3 /WX- /diagnostics:classic /sdl /Od /D _UNICODE /D UNICODE /Gm /EHsc /RTC1 /MDd /GS /fp:precise /Zc:wchar_t /Zc:forScope /Zc:inline /Fo"X64\DEBUG\\" /Fd"X64\DEBUG\VC141.PDB" /Gd /TP C:\USERS\PIERRE\DOCUMENTS\VISUAL STUDIO 2017\PROJECTS\MOTEUROPENGL\MOTEUROPENGL\ENGINE\CORE\APP.CPP
^C:\USERS\PIERRE\DOCUMENTS\VISUAL STUDIO 2017\PROJECTS\MOTEUROPENGL\MOTEUROPENGL\MAIN.CPP
/c /I"..\LIBRARIES\GLEW-2.1.0\INCLUDE" /I..\LIBRARIES\GLM /I"..\LIBRARIES\GLFW-3.2.1.BIN.WIN64\INCLUDE" /I"..\GLFW-3.2.1.BIN.WIN64\INCLUDE" /ZI /nologo /W3 /WX- /diagnostics:classic /sdl /Od /D _UNICODE /D UNICODE /Gm /EHsc /RTC1 /MDd /GS /fp:precise /Zc:wchar_t /Zc:forScope /Zc:inline /Fo"X64\DEBUG\\" /Fd"X64\DEBUG\VC141.PDB" /Gd /TP C:\USERS\PIERRE\DOCUMENTS\VISUAL STUDIO 2017\PROJECTS\MOTEUROPENGL\MOTEUROPENGL\MAIN.CPP
