^C:\USERS\PIERRE\DOCUMENTS\VISUAL STUDIO 2017\PROJECTS\MOTEUROPENGL\MOTEUROPENGL\ENGINE\CORE\APP.CPP|C:\USERS\PIERRE\DOCUMENTS\VISUAL STUDIO 2017\PROJECTS\MOTEUROPENGL\MOTEUROPENGL\ENGINE\CORE\MATERIAL.CPP|C:\USERS\PIERRE\DOCUMENTS\VISUAL STUDIO 2017\PROJECTS\MOTEUROPENGL\MOTEUROPENGL\ENGINE\CORE\MESH.CPP|C:\USERS\PIERRE\DOCUMENTS\VISUAL STUDIO 2017\PROJECTS\MOTEUROPENGL\MOTEUROPENGL\ENGINE\CORE\TEXTURE.CPP|C:\USERS\PIERRE\DOCUMENTS\VISUAL STUDIO 2017\PROJECTS\MOTEUROPENGL\MOTEUROPENGL\ENGINE\TOOLS\TOOLS.CPP|C:\USERS\PIERRE\DOCUMENTS\VISUAL STUDIO 2017\PROJECTS\MOTEUROPENGL\MOTEUROPENGL\MAIN.CPP
C:\USERS\PIERRE\DOCUMENTS\VISUAL STUDIO 2017\PROJECTS\MOTEUROPENGL\MOTEUROPENGL\X64\RELEASE\VC141.PDB
C:\USERS\PIERRE\DOCUMENTS\VISUAL STUDIO 2017\PROJECTS\MOTEUROPENGL\MOTEUROPENGL\X64\RELEASE\MAIN.OBJ
C:\USERS\PIERRE\DOCUMENTS\VISUAL STUDIO 2017\PROJECTS\MOTEUROPENGL\MOTEUROPENGL\X64\RELEASE\TOOLS.OBJ
C:\USERS\PIERRE\DOCUMENTS\VISUAL STUDIO 2017\PROJECTS\MOTEUROPENGL\MOTEUROPENGL\X64\RELEASE\TEXTURE.OBJ
C:\USERS\PIERRE\DOCUMENTS\VISUAL STUDIO 2017\PROJECTS\MOTEUROPENGL\MOTEUROPENGL\X64\RELEASE\MESH.OBJ
C:\USERS\PIERRE\DOCUMENTS\VISUAL STUDIO 2017\PROJECTS\MOTEUROPENGL\MOTEUROPENGL\X64\RELEASE\MATERIAL.OBJ
C:\USERS\PIERRE\DOCUMENTS\VISUAL STUDIO 2017\PROJECTS\MOTEUROPENGL\MOTEUROPENGL\X64\RELEASE\APP.OBJ
^C:\USERS\PIERRE\DOCUMENTS\VISUAL STUDIO 2017\PROJECTS\MOTEUROPENGL\MOTEUROPENGL\ENGINE\CORE\TEXTURE.CPP
C:\USERS\PIERRE\DOCUMENTS\VISUAL STUDIO 2017\PROJECTS\MOTEUROPENGL\MOTEUROPENGL\X64\RELEASE\VC141.PDB
^C:\USERS\PIERRE\DOCUMENTS\VISUAL STUDIO 2017\PROJECTS\MOTEUROPENGL\MOTEUROPENGL\ENGINE\CORE\APP.CPP|C:\USERS\PIERRE\DOCUMENTS\VISUAL STUDIO 2017\PROJECTS\MOTEUROPENGL\MOTEUROPENGL\ENGINE\CORE\MESH.CPP
C:\USERS\PIERRE\DOCUMENTS\VISUAL STUDIO 2017\PROJECTS\MOTEUROPENGL\MOTEUROPENGL\X64\RELEASE\VC141.PDB
C:\USERS\PIERRE\DOCUMENTS\VISUAL STUDIO 2017\PROJECTS\MOTEUROPENGL\MOTEUROPENGL\X64\RELEASE\MESH.OBJ
C:\USERS\PIERRE\DOCUMENTS\VISUAL STUDIO 2017\PROJECTS\MOTEUROPENGL\MOTEUROPENGL\X64\RELEASE\APP.OBJ
^C:\USERS\PIERRE\DOCUMENTS\VISUAL STUDIO 2017\PROJECTS\MOTEUROPENGL\MOTEUROPENGL\ENGINE\CORE\APP.CPP|C:\USERS\PIERRE\DOCUMENTS\VISUAL STUDIO 2017\PROJECTS\MOTEUROPENGL\MOTEUROPENGL\ENGINE\CORE\MATERIAL.CPP|C:\USERS\PIERRE\DOCUMENTS\VISUAL STUDIO 2017\PROJECTS\MOTEUROPENGL\MOTEUROPENGL\ENGINE\CORE\MESH.CPP|C:\USERS\PIERRE\DOCUMENTS\VISUAL STUDIO 2017\PROJECTS\MOTEUROPENGL\MOTEUROPENGL\MAIN.CPP
C:\USERS\PIERRE\DOCUMENTS\VISUAL STUDIO 2017\PROJECTS\MOTEUROPENGL\MOTEUROPENGL\X64\RELEASE\VC141.PDB
C:\USERS\PIERRE\DOCUMENTS\VISUAL STUDIO 2017\PROJECTS\MOTEUROPENGL\MOTEUROPENGL\X64\RELEASE\MAIN.OBJ
C:\USERS\PIERRE\DOCUMENTS\VISUAL STUDIO 2017\PROJECTS\MOTEUROPENGL\MOTEUROPENGL\X64\RELEASE\MESH.OBJ
C:\USERS\PIERRE\DOCUMENTS\VISUAL STUDIO 2017\PROJECTS\MOTEUROPENGL\MOTEUROPENGL\X64\RELEASE\MATERIAL.OBJ
C:\USERS\PIERRE\DOCUMENTS\VISUAL STUDIO 2017\PROJECTS\MOTEUROPENGL\MOTEUROPENGL\X64\RELEASE\APP.OBJ
^C:\USERS\PIERRE\DOCUMENTS\VISUAL STUDIO 2017\PROJECTS\MOTEUROPENGL\MOTEUROPENGL\ENGINE\CORE\APP.CPP|C:\USERS\PIERRE\DOCUMENTS\VISUAL STUDIO 2017\PROJECTS\MOTEUROPENGL\MOTEUROPENGL\ENGINE\CORE\MATERIAL.CPP|C:\USERS\PIERRE\DOCUMENTS\VISUAL STUDIO 2017\PROJECTS\MOTEUROPENGL\MOTEUROPENGL\ENGINE\CORE\MESH.CPP|C:\USERS\PIERRE\DOCUMENTS\VISUAL STUDIO 2017\PROJECTS\MOTEUROPENGL\MOTEUROPENGL\ENGINE\TOOLS\TOOLS.CPP|C:\USERS\PIERRE\DOCUMENTS\VISUAL STUDIO 2017\PROJECTS\MOTEUROPENGL\MOTEUROPENGL\MAIN.CPP
C:\USERS\PIERRE\DOCUMENTS\VISUAL STUDIO 2017\PROJECTS\MOTEUROPENGL\MOTEUROPENGL\X64\RELEASE\VC141.PDB
C:\USERS\PIERRE\DOCUMENTS\VISUAL STUDIO 2017\PROJECTS\MOTEUROPENGL\MOTEUROPENGL\X64\RELEASE\MAIN.OBJ
C:\USERS\PIERRE\DOCUMENTS\VISUAL STUDIO 2017\PROJECTS\MOTEUROPENGL\MOTEUROPENGL\X64\RELEASE\TOOLS.OBJ
C:\USERS\PIERRE\DOCUMENTS\VISUAL STUDIO 2017\PROJECTS\MOTEUROPENGL\MOTEUROPENGL\X64\RELEASE\MESH.OBJ
C:\USERS\PIERRE\DOCUMENTS\VISUAL STUDIO 2017\PROJECTS\MOTEUROPENGL\MOTEUROPENGL\X64\RELEASE\MATERIAL.OBJ
C:\USERS\PIERRE\DOCUMENTS\VISUAL STUDIO 2017\PROJECTS\MOTEUROPENGL\MOTEUROPENGL\X64\RELEASE\APP.OBJ
^C:\USERS\PIERRE\DOCUMENTS\VISUAL STUDIO 2017\PROJECTS\MOTEUROPENGL\MOTEUROPENGL\ENGINE\TOOLS\TOOLS.CPP
C:\USERS\PIERRE\DOCUMENTS\VISUAL STUDIO 2017\PROJECTS\MOTEUROPENGL\MOTEUROPENGL\X64\RELEASE\VC141.PDB
^C:\USERS\PIERRE\DOCUMENTS\VISUAL STUDIO 2017\PROJECTS\MOTEUROPENGL\MOTEUROPENGL\ENGINE\CORE\APP.CPP|C:\USERS\PIERRE\DOCUMENTS\VISUAL STUDIO 2017\PROJECTS\MOTEUROPENGL\MOTEUROPENGL\ENGINE\CORE\MATERIAL.CPP
C:\USERS\PIERRE\DOCUMENTS\VISUAL STUDIO 2017\PROJECTS\MOTEUROPENGL\MOTEUROPENGL\X64\RELEASE\VC141.PDB
C:\USERS\PIERRE\DOCUMENTS\VISUAL STUDIO 2017\PROJECTS\MOTEUROPENGL\MOTEUROPENGL\X64\RELEASE\MATERIAL.OBJ
C:\USERS\PIERRE\DOCUMENTS\VISUAL STUDIO 2017\PROJECTS\MOTEUROPENGL\MOTEUROPENGL\X64\RELEASE\APP.OBJ
^C:\USERS\PIERRE\DOCUMENTS\VISUAL STUDIO 2017\PROJECTS\MOTEUROPENGL\MOTEUROPENGL\ENGINE\CORE\APP.CPP|C:\USERS\PIERRE\DOCUMENTS\VISUAL STUDIO 2017\PROJECTS\MOTEUROPENGL\MOTEUROPENGL\ENGINE\CORE\MESH.CPP|C:\USERS\PIERRE\DOCUMENTS\VISUAL STUDIO 2017\PROJECTS\MOTEUROPENGL\MOTEUROPENGL\MAIN.CPP
C:\USERS\PIERRE\DOCUMENTS\VISUAL STUDIO 2017\PROJECTS\MOTEUROPENGL\MOTEUROPENGL\X64\RELEASE\VC141.PDB
C:\USERS\PIERRE\DOCUMENTS\VISUAL STUDIO 2017\PROJECTS\MOTEUROPENGL\MOTEUROPENGL\X64\RELEASE\MAIN.OBJ
C:\USERS\PIERRE\DOCUMENTS\VISUAL STUDIO 2017\PROJECTS\MOTEUROPENGL\MOTEUROPENGL\X64\RELEASE\MESH.OBJ
C:\USERS\PIERRE\DOCUMENTS\VISUAL STUDIO 2017\PROJECTS\MOTEUROPENGL\MOTEUROPENGL\X64\RELEASE\APP.OBJ
^C:\USERS\PIERRE\DOCUMENTS\VISUAL STUDIO 2017\PROJECTS\MOTEUROPENGL\MOTEUROPENGL\ENGINE\CORE\APP.CPP|C:\USERS\PIERRE\DOCUMENTS\VISUAL STUDIO 2017\PROJECTS\MOTEUROPENGL\MOTEUROPENGL\ENGINE\CORE\CAMERA.CPP|C:\USERS\PIERRE\DOCUMENTS\VISUAL STUDIO 2017\PROJECTS\MOTEUROPENGL\MOTEUROPENGL\ENGINE\CORE\MESH.CPP|C:\USERS\PIERRE\DOCUMENTS\VISUAL STUDIO 2017\PROJECTS\MOTEUROPENGL\MOTEUROPENGL\MAIN.CPP
C:\USERS\PIERRE\DOCUMENTS\VISUAL STUDIO 2017\PROJECTS\MOTEUROPENGL\MOTEUROPENGL\X64\RELEASE\VC141.PDB
C:\USERS\PIERRE\DOCUMENTS\VISUAL STUDIO 2017\PROJECTS\MOTEUROPENGL\MOTEUROPENGL\X64\RELEASE\MAIN.OBJ
C:\USERS\PIERRE\DOCUMENTS\VISUAL STUDIO 2017\PROJECTS\MOTEUROPENGL\MOTEUROPENGL\X64\RELEASE\MESH.OBJ
C:\USERS\PIERRE\DOCUMENTS\VISUAL STUDIO 2017\PROJECTS\MOTEUROPENGL\MOTEUROPENGL\X64\RELEASE\CAMERA.OBJ
C:\USERS\PIERRE\DOCUMENTS\VISUAL STUDIO 2017\PROJECTS\MOTEUROPENGL\MOTEUROPENGL\X64\RELEASE\APP.OBJ
^C:\USERS\PIERRE\DOCUMENTS\VISUAL STUDIO 2017\PROJECTS\MOTEUROPENGL\MOTEUROPENGL\ENGINE\CORE\APP.CPP|C:\USERS\PIERRE\DOCUMENTS\VISUAL STUDIO 2017\PROJECTS\MOTEUROPENGL\MOTEUROPENGL\ENGINE\CORE\LIGHT.CPP|C:\USERS\PIERRE\DOCUMENTS\VISUAL STUDIO 2017\PROJECTS\MOTEUROPENGL\MOTEUROPENGL\ENGINE\CORE\MATERIAL.CPP|C:\USERS\PIERRE\DOCUMENTS\VISUAL STUDIO 2017\PROJECTS\MOTEUROPENGL\MOTEUROPENGL\ENGINE\CORE\MESH.CPP|C:\USERS\PIERRE\DOCUMENTS\VISUAL STUDIO 2017\PROJECTS\MOTEUROPENGL\MOTEUROPENGL\MAIN.CPP
C:\USERS\PIERRE\DOCUMENTS\VISUAL STUDIO 2017\PROJECTS\MOTEUROPENGL\MOTEUROPENGL\X64\RELEASE\VC141.PDB
C:\USERS\PIERRE\DOCUMENTS\VISUAL STUDIO 2017\PROJECTS\MOTEUROPENGL\MOTEUROPENGL\X64\RELEASE\MAIN.OBJ
C:\USERS\PIERRE\DOCUMENTS\VISUAL STUDIO 2017\PROJECTS\MOTEUROPENGL\MOTEUROPENGL\X64\RELEASE\MESH.OBJ
C:\USERS\PIERRE\DOCUMENTS\VISUAL STUDIO 2017\PROJECTS\MOTEUROPENGL\MOTEUROPENGL\X64\RELEASE\MATERIAL.OBJ
C:\USERS\PIERRE\DOCUMENTS\VISUAL STUDIO 2017\PROJECTS\MOTEUROPENGL\MOTEUROPENGL\X64\RELEASE\LIGHT.OBJ
C:\USERS\PIERRE\DOCUMENTS\VISUAL STUDIO 2017\PROJECTS\MOTEUROPENGL\MOTEUROPENGL\X64\RELEASE\APP.OBJ
^C:\USERS\PIERRE\DOCUMENTS\VISUAL STUDIO 2017\PROJECTS\MOTEUROPENGL\MOTEUROPENGL\ENGINE\CORE\LIGHT.CPP
C:\USERS\PIERRE\DOCUMENTS\VISUAL STUDIO 2017\PROJECTS\MOTEUROPENGL\MOTEUROPENGL\X64\RELEASE\VC141.PDB
^C:\USERS\PIERRE\DOCUMENTS\VISUAL STUDIO 2017\PROJECTS\MOTEUROPENGL\MOTEUROPENGL\ENGINE\CORE\APP.CPP|C:\USERS\PIERRE\DOCUMENTS\VISUAL STUDIO 2017\PROJECTS\MOTEUROPENGL\MOTEUROPENGL\MAIN.CPP
C:\USERS\PIERRE\DOCUMENTS\VISUAL STUDIO 2017\PROJECTS\MOTEUROPENGL\MOTEUROPENGL\X64\RELEASE\VC141.PDB
C:\USERS\PIERRE\DOCUMENTS\VISUAL STUDIO 2017\PROJECTS\MOTEUROPENGL\MOTEUROPENGL\X64\RELEASE\MAIN.OBJ
C:\USERS\PIERRE\DOCUMENTS\VISUAL STUDIO 2017\PROJECTS\MOTEUROPENGL\MOTEUROPENGL\X64\RELEASE\APP.OBJ
^C:\USERS\PIERRE\DOCUMENTS\VISUAL STUDIO 2017\PROJECTS\MOTEUROPENGL\MOTEUROPENGL\ENGINE\CORE\APP.CPP|C:\USERS\PIERRE\DOCUMENTS\VISUAL STUDIO 2017\PROJECTS\MOTEUROPENGL\MOTEUROPENGL\MAIN.CPP|C:\USERS\PIERRE\DOCUMENTS\VISUAL STUDIO 2017\PROJECTS\MOTEUROPENGL\MOTEUROPENGL\MATERIALS\PHONGMATERIAL\PHONGMATERIAL.CPP
C:\USERS\PIERRE\DOCUMENTS\VISUAL STUDIO 2017\PROJECTS\MOTEUROPENGL\MOTEUROPENGL\X64\RELEASE\VC141.PDB
C:\USERS\PIERRE\DOCUMENTS\VISUAL STUDIO 2017\PROJECTS\MOTEUROPENGL\MOTEUROPENGL\X64\RELEASE\PHONGMATERIAL.OBJ
C:\USERS\PIERRE\DOCUMENTS\VISUAL STUDIO 2017\PROJECTS\MOTEUROPENGL\MOTEUROPENGL\X64\RELEASE\MAIN.OBJ
C:\USERS\PIERRE\DOCUMENTS\VISUAL STUDIO 2017\PROJECTS\MOTEUROPENGL\MOTEUROPENGL\X64\RELEASE\APP.OBJ
^C:\USERS\PIERRE\DOCUMENTS\VISUAL STUDIO 2017\PROJECTS\MOTEUROPENGL\MOTEUROPENGL\ENGINE\CORE\APP.CPP|C:\USERS\PIERRE\DOCUMENTS\VISUAL STUDIO 2017\PROJECTS\MOTEUROPENGL\MOTEUROPENGL\ENGINE\CORE\MATERIAL.CPP|C:\USERS\PIERRE\DOCUMENTS\VISUAL STUDIO 2017\PROJECTS\MOTEUROPENGL\MOTEUROPENGL\ENGINE\CORE\MESH.CPP|C:\USERS\PIERRE\DOCUMENTS\VISUAL STUDIO 2017\PROJECTS\MOTEUROPENGL\MOTEUROPENGL\MAIN.CPP|C:\USERS\PIERRE\DOCUMENTS\VISUAL STUDIO 2017\PROJECTS\MOTEUROPENGL\MOTEUROPENGL\MATERIALS\PHONGMATERIAL\PHONGMATERIAL.CPP
C:\USERS\PIERRE\DOCUMENTS\VISUAL STUDIO 2017\PROJECTS\MOTEUROPENGL\MOTEUROPENGL\X64\RELEASE\VC141.PDB
C:\USERS\PIERRE\DOCUMENTS\VISUAL STUDIO 2017\PROJECTS\MOTEUROPENGL\MOTEUROPENGL\X64\RELEASE\MAIN.OBJ
C:\USERS\PIERRE\DOCUMENTS\VISUAL STUDIO 2017\PROJECTS\MOTEUROPENGL\MOTEUROPENGL\X64\RELEASE\PHONGMATERIAL.OBJ
C:\USERS\PIERRE\DOCUMENTS\VISUAL STUDIO 2017\PROJECTS\MOTEUROPENGL\MOTEUROPENGL\X64\RELEASE\MESH.OBJ
C:\USERS\PIERRE\DOCUMENTS\VISUAL STUDIO 2017\PROJECTS\MOTEUROPENGL\MOTEUROPENGL\X64\RELEASE\MATERIAL.OBJ
C:\USERS\PIERRE\DOCUMENTS\VISUAL STUDIO 2017\PROJECTS\MOTEUROPENGL\MOTEUROPENGL\X64\RELEASE\APP.OBJ
^C:\USERS\PIERRE\DOCUMENTS\VISUAL STUDIO 2017\PROJECTS\MOTEUROPENGL\MOTEUROPENGL\ENGINE\CORE\MATERIAL.CPP
C:\USERS\PIERRE\DOCUMENTS\VISUAL STUDIO 2017\PROJECTS\MOTEUROPENGL\MOTEUROPENGL\X64\RELEASE\VC141.PDB
^C:\USERS\PIERRE\DOCUMENTS\VISUAL STUDIO 2017\PROJECTS\MOTEUROPENGL\MOTEUROPENGL\ENGINE\CORE\MESH.CPP|C:\USERS\PIERRE\DOCUMENTS\VISUAL STUDIO 2017\PROJECTS\MOTEUROPENGL\MOTEUROPENGL\MATERIALS\PHONGMATERIAL\PHONGMATERIAL.CPP
C:\USERS\PIERRE\DOCUMENTS\VISUAL STUDIO 2017\PROJECTS\MOTEUROPENGL\MOTEUROPENGL\X64\RELEASE\VC141.PDB
C:\USERS\PIERRE\DOCUMENTS\VISUAL STUDIO 2017\PROJECTS\MOTEUROPENGL\MOTEUROPENGL\X64\RELEASE\PHONGMATERIAL.OBJ
C:\USERS\PIERRE\DOCUMENTS\VISUAL STUDIO 2017\PROJECTS\MOTEUROPENGL\MOTEUROPENGL\X64\RELEASE\MESH.OBJ
^C:\USERS\PIERRE\DOCUMENTS\VISUAL STUDIO 2017\PROJECTS\MOTEUROPENGL\MOTEUROPENGL\ENGINE\CORE\MESH.CPP
C:\USERS\PIERRE\DOCUMENTS\VISUAL STUDIO 2017\PROJECTS\MOTEUROPENGL\MOTEUROPENGL\X64\RELEASE\VC141.PDB
^C:\USERS\PIERRE\DOCUMENTS\VISUAL STUDIO 2017\PROJECTS\MOTEUROPENGL\MOTEUROPENGL\ENGINE\CORE\APP.CPP|C:\USERS\PIERRE\DOCUMENTS\VISUAL STUDIO 2017\PROJECTS\MOTEUROPENGL\MOTEUROPENGL\MATERIALS\PHONGMATERIAL\PHONGMATERIAL.CPP
C:\USERS\PIERRE\DOCUMENTS\VISUAL STUDIO 2017\PROJECTS\MOTEUROPENGL\MOTEUROPENGL\X64\RELEASE\VC141.PDB
C:\USERS\PIERRE\DOCUMENTS\VISUAL STUDIO 2017\PROJECTS\MOTEUROPENGL\MOTEUROPENGL\X64\RELEASE\PHONGMATERIAL.OBJ
C:\USERS\PIERRE\DOCUMENTS\VISUAL STUDIO 2017\PROJECTS\MOTEUROPENGL\MOTEUROPENGL\X64\RELEASE\APP.OBJ
^C:\USERS\PIERRE\DOCUMENTS\VISUAL STUDIO 2017\PROJECTS\MOTEUROPENGL\MOTEUROPENGL\MATERIALS\PHONGMATERIAL\PHONGMATERIAL.CPP
C:\USERS\PIERRE\DOCUMENTS\VISUAL STUDIO 2017\PROJECTS\MOTEUROPENGL\MOTEUROPENGL\X64\RELEASE\VC141.PDB
^C:\USERS\PIERRE\DOCUMENTS\VISUAL STUDIO 2017\PROJECTS\MOTEUROPENGL\MOTEUROPENGL\ENGINE\CORE\APP.CPP|C:\USERS\PIERRE\DOCUMENTS\VISUAL STUDIO 2017\PROJECTS\MOTEUROPENGL\MOTEUROPENGL\ENGINE\CORE\CAMERA.CPP|C:\USERS\PIERRE\DOCUMENTS\VISUAL STUDIO 2017\PROJECTS\MOTEUROPENGL\MOTEUROPENGL\MAIN.CPP
C:\USERS\PIERRE\DOCUMENTS\VISUAL STUDIO 2017\PROJECTS\MOTEUROPENGL\MOTEUROPENGL\X64\RELEASE\VC141.PDB
C:\USERS\PIERRE\DOCUMENTS\VISUAL STUDIO 2017\PROJECTS\MOTEUROPENGL\MOTEUROPENGL\X64\RELEASE\MAIN.OBJ
C:\USERS\PIERRE\DOCUMENTS\VISUAL STUDIO 2017\PROJECTS\MOTEUROPENGL\MOTEUROPENGL\X64\RELEASE\CAMERA.OBJ
C:\USERS\PIERRE\DOCUMENTS\VISUAL STUDIO 2017\PROJECTS\MOTEUROPENGL\MOTEUROPENGL\X64\RELEASE\APP.OBJ
^C:\USERS\PIERRE\DOCUMENTS\VISUAL STUDIO 2017\PROJECTS\MOTEUROPENGL\MOTEUROPENGL\ENGINE\CORE\APP.CPP
C:\USERS\PIERRE\DOCUMENTS\VISUAL STUDIO 2017\PROJECTS\MOTEUROPENGL\MOTEUROPENGL\X64\RELEASE\VC141.PDB
^C:\USERS\PIERRE\DOCUMENTS\VISUAL STUDIO 2017\PROJECTS\MOTEUROPENGL\MOTEUROPENGL\ENGINE\CORE\CAMERA.CPP
C:\USERS\PIERRE\DOCUMENTS\VISUAL STUDIO 2017\PROJECTS\MOTEUROPENGL\MOTEUROPENGL\X64\RELEASE\VC141.PDB
^C:\USERS\PIERRE\DOCUMENTS\VISUAL STUDIO 2017\PROJECTS\MOTEUROPENGL\MOTEUROPENGL\MAIN.CPP
C:\USERS\PIERRE\DOCUMENTS\VISUAL STUDIO 2017\PROJECTS\MOTEUROPENGL\MOTEUROPENGL\X64\RELEASE\VC141.PDB
